%YAML 1.1
%TAG !u! tag:unity3d.com,2011:
--- !u!1045 &1
EditorBuildSettings:
  m_ObjectHideFlags: 0
  serializedVersion: 2
  m_Scenes:
  - enabled: 1
    path: Assets/Scenes/Main.unity
    guid: 0e98b0cb58e36004f879e84d2803c00a
  - enabled: 0
    path: Assets/Scenes/Level1.unity
    guid: 6330eef60187341478d522302bf0c9e2
  - enabled: 0
    path: Assets/Scenes/Level2.unity
    guid: 7e2a231fda558c94cb7a4b10a5abe882
  - enabled: 0
    path: Assets/Scenes/Level3.unity
    guid: 2cda990e2423bbf4892e6590ba056729
  m_configObjects:
    com.unity.addressableassets: {fileID: 11400000, guid: 9d45a8b9bec9e3448b35c0e6f2552288, type: 2}
